{
  "AppSyncApiName": "uber",
  "DynamoDBBillingMode": "PAY_PER_REQUEST",
  "DynamoDBEnableServerSideEncryption": false,
  "AuthCognitoUserPoolId": {
    "Fn::GetAtt": [
      "authuber6b43a6556b43a655",
      "Outputs.UserPoolId"
    ]
  }
}